Div,Date,HomeTeam,AwayTeam,FTHG,FTAG,FTR,HTHG,HTAG,HTR,B365H,B365D,B365A,BWH,BWD,BWA,GBH,GBD,GBA,IWH,IWD,IWA,LBH,LBD,LBA,SBH,SBD
P1,12/08/11,Gil Vicente,Benfica,2,2,D,1,2,A,9,4.2,1.4,7.5,4.4,1.35,8,4,1.4,7,3.6,1.45,7,4,1.44,8,3.8
P1,13/08/11,Rio Ave,Sp Braga,0,0,D,0,0,D,3.25,3.1,2.3,2.9,3,2.35,3,3.1,2.3,2.9,2.9,2.4,2.9,3.1,2.38,2.9,3.1
P1,13/08/11,Sp Lisbon,Olhanense,1,1,D,0,1,A,1.4,4.33,8.5,1.37,4.2,7.5,1.35,4.25,8,1.4,3.7,7.5,1.36,4.33,8,1.36,4.2
P1,14/08/11,Feirense ,Nacional,0,0,D,0,0,D,2.8,3.1,2.6,2.95,2.95,2.35,2.8,3,2.45,2.6,3,2.6,3,3,2.38,2.9,3
P1,14/08/11,Guimaraes,Porto,0,1,A,0,1,A,7,4,1.5,6.25,4,1.45,6,3.6,1.53,7.5,3.7,1.4,7,3.4,1.53,6.25,3.6
P1,14/08/11,Maritimo,Beira Mar,0,0,D,0,0,D,1.91,3.2,4.33,1.83,3,4.5,1.75,3.25,4.5,1.75,3.1,4.5,1.8,3.25,4.5,1.75,3.25
P1,14/08/11,Setubal,Pacos Ferreira,2,1,H,0,1,A,2.5,3.1,2.9,2.5,2.95,2.75,2.55,3,2.7,2.4,3,2.8,2.4,3.2,2.8,2.6,3
P1,15/08/11,Leiria,Academica,1,2,A,1,0,H,2.5,3.2,2.8,2.45,3,2.8,2.4,3,2.9,2.3,3,2.9,2.38,3,3,2.4,3
P1,19/08/11,Porto,Gil Vicente,3,1,H,2,1,H,1.17,7,16,1.16,7,13.5,1.17,6,15,1.15,5.7,14,1.14,6,13,1.15,6
P1,20/08/11,Benfica,Feirense,3,1,H,1,0,H,1.2,6.5,13,1.18,6.75,12,1.2,5.75,12,1.2,5,12,1.17,5.5,11,1.2,5.5
P1,21/08/11,Academica,Rio Ave,1,0,H,1,0,H,2.4,3.1,3.1,2.2,2.95,3.5,2.25,3,3.2,2.3,2.9,3,2.2,3,3,2.3,2.9
P1,21/08/11,Beira Mar,Sp Lisbon,0,0,D,0,0,D,4.75,3.25,1.83,4.75,3.5,1.72,4.5,3.3,1.77,4.2,3.1,1.8,4.5,3.5,1.62,4.33,3.15
P1,21/08/11,Pacos Ferreira,Leiria,2,1,H,0,0,D,2,3.2,4,2.05,3,3.9,2.05,3.1,3.6,2.2,2.9,3.2,2,3.2,3.2,2.05,2.95
P1,21/08/11,Sp Braga,Maritimo,2,0,H,0,0,D,1.62,3.6,6,1.65,3.4,5.5,1.6,3.5,5.5,1.6,3.4,5.2,1.67,3.25,4.5,1.55,3.5
P1,22/08/11,Olhanense,Setubal,2,2,D,0,2,A,2.2,3.2,3.4,2.2,3,3.4,2.2,3.1,3.25,2.25,2.9,3.1,2.2,3,3,2.15,3.05
P1,27/08/11,Gil Vicente,Academica,2,0,H,0,0,D,2.5,3,3,2.55,2.85,2.95,2.5,3,2.8,2.4,3,2.8,2.38,3.1,2.62,2.45,3
P1,28/08/11,Feirense,Pacos Ferreira,0,0,D,0,0,D,2.7,3,2.75,2.7,2.95,2.7,2.6,3,2.7,2.5,3,2.7,2.62,3.1,2.38,2.65,2.95
P1,28/08/11,Guimaraes,Beira Mar,0,3,A,0,1,A,1.91,3.2,4.33,1.88,2.95,4.75,1.85,3.3,4,1.7,3.3,4.5,1.67,3.3,4.5,1.8,3.25
P1,28/08/11,Rio Ave,Olhanense,0,1,A,0,1,A,2.1,3.1,3.75,2.2,3,3.4,2.1,3.1,3.4,2.1,3,3.3,2,3,3.4,2.1,3.1
P1,28/08/11,Sp Lisbon,Maritimo,2,3,A,1,0,H,1.44,4,8,1.44,4,7.5,1.45,3.9,7,1.4,3.7,7.5,1.4,3.75,7,1.44,3.75
P1,29/08/11,Nacional,Benfica,0,2,A,0,1,A,6.5,3.8,1.53,5.75,3.8,1.55,5.5,3.5,1.6,5.8,3.4,1.55,4.5,3.5,1.62,5.25,3.6
P1,29/08/11,Setubal,Sp Braga,0,1,A,0,0,D,3.6,3.2,2.1,3.6,3.1,2.1,3.4,3.1,2.1,3.1,3,2.2,2.88,3.1,2.2,3.3,3.1
P1,04/09/11,Nacional,Guimaraes,1,4,A,0,2,A,2.2,3.2,3.4,2.15,3,3.5,2.15,3.1,3.3,2.1,3,3.3,2.1,3.2,3.4,2.2,3
P1,06/09/11,Leiria,Porto,2,5,A,0,2,A,12,5,1.29,10,5,1.28,9,4.75,1.3,4,4.2,1.33,10,4.5,1.3,10,4.5
P1,09/09/11,Porto,Setubal,3,0,H,0,0,D,1.14,7,21,1.14,6.75,18.5,1.17,6,15,1.12,6,16,1.17,6,17,1.13,6.5
P1,10/09/11,Benfica,Guimaraes,2,1,H,2,0,H,1.33,5,9,1.28,5,10,1.3,4.75,9,1.25,4.6,10.5,1.29,5,9.5,1.25,5
P1,10/09/11,Pacos Ferreira,Sp Lisbon,2,3,A,1,0,H,4.75,3.25,1.83,5.25,3.3,1.7,4.2,3.25,1.83,4,3.1,1.85,4.5,3.2,1.83,4.2,3.25
P1,11/09/11,Beira Mar,Leiria,0,1,A,0,0,D,2.2,3.2,3.4,2.25,3.1,3.2,2.2,3.1,3.2,2.1,3,3.3,2.1,3.2,3.4,2.15,3.15
P1,11/09/11,Maritimo,Rio Ave,2,1,H,1,1,D,2.1,3.1,3.8,1.95,3.2,3.9,2.05,3.1,3.6,2,3,3.6,2,3.25,3.6,2,3.1
P1,11/09/11,Olhanense,Feirense,1,2,A,0,1,A,1.91,3.25,4.33,1.91,3.1,4.25,1.9,3.2,4,1.9,3.1,3.9,1.91,3.2,4,1.91,3.2
P1,11/09/11,Sp Braga,Gil Vicente,3,1,H,0,0,D,1.44,4.33,7,1.45,4,7,1.44,4,7,1.4,3.7,7.5,1.44,4,7,1.4,4.2
P1,12/09/11,Academica,Nacional,4,0,H,0,0,D,2.5,3.1,2.9,2.4,2.95,3.1,2.4,3,2.9,2.3,2.9,3,2.38,3.1,2.9,2.4,3.1
P1,16/09/11,Gil Vicente,Olhanense,1,1,D,0,1,A,2.15,3.2,3.5,2.1,3.1,3.6,2.2,3,3.25,2.2,3,3.1,2.1,3,3.2,2.2,3.1
P1,17/09/11,Nacional,Pacos Ferreira,1,0,H,1,0,H,2.2,3.2,3.4,1.95,3.2,3.9,2.1,3.1,3.4,2,3.05,3.55,2,3,3.4,2.1,3.15
P1,18/09/11,Benfica,Academica,4,1,H,2,1,H,1.2,6,16,1.2,5.7,11,1.2,5.5,13,1.2,5,12,1.17,5.5,13,1.17,6
P1,18/09/11,Feirense,Porto,0,0,D,0,0,D,15,6,1.2,13.5,5.75,1.2,11,5.5,1.22,12,5,1.2,11,5,1.2,11,5.75
P1,18/09/11,Leiria,Maritimo,1,3,A,0,2,A,2.8,3.1,2.6,2.8,3,2.55,2.8,3,2.5,2.6,3,2.6,2.5,3.1,2.5,2.7,3
P1,18/09/11,Setubal,Beira Mar,1,0,H,0,0,D,2.38,3.1,3.1,2.5,3,2.9,2.5,3,2.8,2.4,3,2.8,2.25,3,2.88,2.4,3
P1,19/09/11,Guimaraes,Sp Braga,1,1,D,1,0,H,3.1,3.1,2.4,3.1,3,2.35,2.7,3,2.6,2.8,3,2.4,2.88,3.1,2.2,2.85,3
P1,19/09/11,Rio Ave,Sp Lisbon,2,3,A,0,2,A,4.6,3.3,1.85,4.75,3.25,1.78,4,3.2,1.9,4.2,3.1,1.8,4,3.1,1.8,4.3,3.2
P1,23/09/11,Porto,Benfica,2,2,D,1,0,H,1.83,3.75,4,1.85,3.8,4.1,1.85,3.3,4,1.8,3.1,4.2,1.8,3.2,4.33,1.8,3.4
P1,24/09/11,Sp Braga,Nacional,2,0,H,1,0,H,1.53,3.8,6.5,1.5,3.75,6.75,1.55,3.6,6,1.45,3.6,7,1.5,3.4,6,1.53,3.6
P1,24/09/11,Sp Lisbon,Setubal,3,0,H,3,0,H,1.33,4.5,11,1.33,4.6,9,1.33,4.5,9,1.35,4,8,1.36,3.75,8,1.3,4.5
P1,25/09/11,Beira Mar,Rio Ave,0,0,D,0,0,D,2.5,3.1,2.9,2.5,3,2.85,2.4,3,2.9,2.4,3,2.8,2.2,3,3,2.35,3
P1,25/09/11,Maritimo,Guimaraes,2,1,H,1,0,H,2.38,3,3.2,2.2,3.1,3.3,2.3,3,3.1,2.3,3,2.9,2.2,3,3,2.4,3
P1,25/09/11,Olhanense,Leiria,2,1,H,1,0,H,2.3,3.1,3.2,2.3,3,3.2,2.25,3.1,3.1,2.2,3,3.1,2.1,3,3.2,2.25,3.05
P1,25/09/11,Pacos Ferreira,Gil Vicente,1,2,A,1,1,D,2.38,3.1,3.1,2.4,3,3,2.35,3.1,2.9,2.2,3,3.1,2.2,3,3,2.35,3
P1,26/09/11,Academica,Feirense,4,0,H,4,0,H,2.05,3.2,3.75,2,3.1,3.9,2.05,3.1,3.6,1.85,3.1,4,1.91,3,3.75,2,3.1
P1,30/09/11,Setubal,Rio Ave,2,1,H,1,1,D,2.4,3.2,3,2.3,3.1,3.1,2.4,3.1,2.85,2.3,3,2.9,2.2,3,3,2.45,3.15
P1,01/10/11,Benfica,Pacos Ferreira,4,1,H,2,0,H,1.17,7,15,1.18,6,15,1.15,6.5,16,1.15,5.7,14,1.17,5.5,11,1.17,6.5
P1,02/10/11,Academica,Porto,0,3,A,0,2,A,8,4.5,1.4,8,4.1,1.4,8.5,4.25,1.36,8,4.2,1.33,8,3.75,1.36,8.5,4.5
P1,02/10/11,Feirense,Maritimo,2,2,D,1,1,D,2.9,3.1,2.5,2.9,3,2.5,2.8,3,2.5,2.7,3,2.5,2.75,3.2,2.25,2.85,3.1
P1,02/10/11,Guimaraes,Sp Lisbon,0,1,A,0,1,A,4.2,3.3,1.91,4.2,3.4,1.83,4,3.25,1.9,4,3.2,1.8,3.75,3.25,1.8,4.2,3.4
P1,02/10/11,Leiria,Sp Braga,1,0,H,1,0,H,5,3.5,1.73,4.75,3.3,1.75,4.75,3.4,1.72,4.3,3.2,1.75,4.33,3.2,1.73,5,3.5
P1,02/10/11,Nacional,Olhanense,1,0,H,1,0,H,2.1,3.1,3.8,2,3.1,3.9,2,3.1,3.75,2,3,3.6,2.1,3,3.2,2.1,3.05
P1,03/10/11,Gil Vicente,Beira Mar,0,0,D,0,0,D,2.1,3.25,3.6,2.1,3.1,3.6,2.1,3.1,3.5,2,3.1,3.4,2.1,3,3.2,2.1,3.15
P1,21/10/11,Pacos Ferreira,Academica,2,0,H,2,0,H,2.4,3.2,3,2.4,3.1,3.2,2.35,3,3,2.4,3,2.8,2.25,3,2.9,2.4,3.2
P1,22/10/11,Beira Mar,Benfica,0,1,A,0,1,A,9,4.5,1.36,8,4.4,1.37,8.5,4.33,1.35,8,4,1.35,8,3.75,1.36,9,4.75
P1,22/10/11,Olhanense,Guimaraes,1,0,H,0,0,D,2.9,3.2,2.45,2.9,3,2.5,2.8,3,2.5,2.8,2.9,2.5,2.5,3.1,2.5,2.8,3.1
P1,23/10/11,Maritimo,Setubal,1,0,H,1,0,H,1.67,3.5,5.5,1.67,3.4,5.25,1.67,3.4,5,1.65,3.3,4.9,1.67,3.25,4.5,1.727,3.4
P1,23/10/11,Porto,Nacional,5,0,H,2,0,H,1.14,7,19,1.15,6.2,20,1.15,6.5,15,1.15,5.7,14,1.12,6,15,1.125,7.5
P1,23/10/11,Rio Ave,Leiria,2,0,H,1,0,H,1.95,3.3,4,1.95,3.2,3.9,1.95,3.2,3.75,2,3,3.6,2,3,3.4,2.05,3.15
P1,23/10/11,Sp Braga,Feirense,3,0,H,1,0,H,1.4,4,9.5,1.4,4,8.75,1.4,4,8,1.35,4,8,1.36,3.75,8,1.35,4.5
P1,24/10/11,Sp Lisbon,Gil Vicente,6,1,H,1,0,H,1.33,4.75,10,1.35,4.4,9,1.33,4.5,8.5,1.35,4,8,1.33,4,8,1.3,5
P1,28/10/11,Porto,Pacos Ferreira,3,0,H,1,0,H,1.13,8,21,1.14,7,16.5,1.14,7,16,1.17,5.4,13,1.1,6.5,17,1.1,7.5
P1,29/10/11,Academica,Sp Braga,0,0,D,0,0,D,3.75,3.25,2.05,3.75,3.2,2,3.5,3.2,2.05,3.3,3,2.1,3.5,3.2,1.91,3.6,3.2
P1,29/10/11,Benfica,Olhanense,2,1,H,2,0,H,1.18,6.5,16,1.18,6.25,14,1.18,6,14,1.2,5,12,1.14,6,13,1.166,5.75
P1,30/10/11,Feirense,Sp Lisbon,0,2,A,0,0,D,7.5,3.8,1.5,7.5,3.9,1.45,6.5,3.6,1.53,7,3.6,1.45,5.5,3.3,1.57,5.5,3.7
P1,30/10/11,Guimaraes,Rio Ave,2,1,H,1,1,D,2,3.2,4,1.95,3.2,3.9,1.9,3.2,4,1.9,3.1,3.8,1.91,3,3.75,1.909,3.2
P1,30/10/11,Leiria,Setubal,2,0,H,2,0,H,2.2,3.2,3.4,2.25,3.1,3.2,2.15,3.1,3.3,2.3,3,2.9,2.1,3,3.2,2.1,3.1
P1,30/10/11,Nacional,Beira Mar,2,1,H,2,1,H,2.15,3.1,3.6,2.15,2.95,3.6,2.1,3.1,3.5,2,3.1,3.4,2,3,3.4,2.1,3
P1,01/11/11,Gil Vicente,Maritimo,0,0,D,0,0,D,3,3.2,2.4,2.9,3,2.5,2.75,3.1,2.5,2.6,3.05,2.6,2.7,3,2.38,2.6,3
P1,04/11/11,Pacos Ferreira,Guimaraes,1,5,A,1,1,D,2.88,3.2,2.5,3,3,2.4,2.75,3.1,2.5,2.5,3,2.7,2.62,3.1,2.38,2.8,3.1
P1,05/11/11,Maritimo,Academica,3,2,H,2,1,H,1.8,3.4,4.75,1.83,3.2,4.5,1.85,3.2,4.25,1.8,3.1,4.2,1.83,3.2,3.75,1.85,3.3
P1,05/11/11,Olhanense,Porto,0,0,D,0,0,D,11,4.5,1.33,10,4.75,1.3,10,4.75,1.28,8.5,4.4,1.3,10,5,1.22,13,4.6
P1,06/11/11,Beira Mar,Feirense,2,1,H,2,0,H,2.1,3.25,3.6,2.1,3.1,3.5,2.15,3,3.4,2.1,2.9,3.4,2.1,3,3.2,2.2,3
P1,06/11/11,Rio Ave,Nacional,2,1,H,0,1,A,2.38,3.25,3,2.4,3,3,2.35,3.1,2.9,2.3,2.9,3,2.38,3,2.7,2.4,3.1
P1,06/11/11,Setubal,Gil Vicente,0,0,D,0,0,D,2.5,3.1,2.9,2.35,3.1,3,2.3,3.1,3,2.2,2.9,3.2,2.2,3,3,2.4,3.1
P1,06/11/11,Sp Braga,Benfica,1,1,D,1,0,H,3.75,3.3,2,3.7,3.3,2.1,3.4,3.2,2.1,3.3,3,2.1,3.4,3,2,3.5,3.2
P1,06/11/11,Sp Lisbon,Leiria,3,1,H,1,1,D,1.25,5.5,12,1.2,5.75,14,1.23,5.5,11,1.25,4.6,10.5,1.22,5,9,1.222,6
P1,25/11/11,Academica,Beira Mar,0,1,A,0,1,A,2.1,3.2,3.6,2.15,3.1,3.4,2.1,3.2,3.4,2.2,3,3.1,2.1,3,3.2,2.1,3.2
P1,26/11/11,Benfica,Sp Lisbon,1,0,H,1,0,H,1.8,3.6,4.33,1.85,3.3,4.25,1.8,3.4,4.25,1.8,3.2,4,1.8,3.25,3.75,1.8,3.4
P1,26/11/11,Nacional,Maritimo,2,2,D,0,1,A,2.9,3.1,2.5,2.95,3,2.45,2.75,3.1,2.5,2.9,3,2.4,2.62,3.1,2.38,2.8,3.1
P1,27/11/11,Feirense,Rio Ave,2,0,H,2,0,H,2.75,3,2.75,2.7,2.95,2.7,2.6,3,2.7,2.65,2.9,2.65,2.5,2.9,2.62,2.65,3
P1,27/11/11,Gil Vicente,Leiria,2,1,H,1,0,H,2.05,3.25,3.75,2,3.2,3.75,2,3.2,3.6,2,3,3.6,2,3,3.4,2.1,3.15
P1,27/11/11,Pacos Ferreira,Olhanense,1,1,D,0,0,D,2.25,3.25,3.2,2.35,3,3.1,2.15,3.2,3.25,2.2,3,3.1,2.25,3.1,2.8,2.3,3.1
P1,27/11/11,Porto,Sp Braga,3,2,H,1,0,H,1.4,4.5,8,1.44,4.1,7,1.42,4.25,7,1.45,3.6,7,1.4,3.75,7,1.4,4.333
P1,28/11/11,Guimaraes,Setubal,3,0,H,0,0,D,1.62,3.6,6,1.67,3.4,5.25,1.62,3.5,5.5,1.6,3.4,5.2,1.62,3.3,5,1.6,3.5
P1,09/12/11,Sp Braga,Pacos Ferreira,5,2,H,2,1,H,1.36,4.75,8.5,1.34,4.5,9,1.33,4.5,9,1.35,4,8,1.33,4,8,1.35,4.5
P1,10/12/11,Beira Mar,Porto,1,2,A,1,1,D,10,4.75,1.33,8,4.4,1.37,9,4.5,1.33,8,4,1.35,8,4,1.33,9,4.5
P1,10/12/11,Sp Lisbon,Nacional,1,0,H,1,0,H,1.25,5.5,12,1.25,5.25,11,1.25,5,11,1.25,4.6,10.5,1.25,4.5,10,1.25,5.5
P1,11/12/11,Leiria,Guimaraes,1,0,H,1,0,H,3.1,3.1,2.4,3,3,2.4,2.9,3.1,2.4,2.8,3,2.4,2.7,3,2.38,2.9,3.05
P1,11/12/11,Maritimo,Benfica,0,1,A,0,0,D,5,3.5,1.73,5,3.5,1.67,4.75,3.4,1.72,4,3.2,1.8,4.5,3.3,1.67,4.8,3.4
P1,11/12/11,Rio Ave,Gil Vicente,2,0,H,1,0,H,2.1,3.2,3.6,2.15,3,3.5,2.1,3.1,3.5,2.1,3,3.3,2.1,3,3.2,2.15,3.1
P1,11/12/11,Setubal,Feirense,1,1,D,1,1,D,2.3,3.1,3.2,2.35,3,3.1,2.3,3.1,3,2.2,3,3.1,2.1,3,3.2,2.2,3.1
P1,12/12/11,Olhanense,Academica,0,2,A,0,1,A,2.3,3.2,3.2,2.2,3,3.4,2.1,3.1,3.4,2.2,3,3.1,2.1,3,3.2,2.2,3.1
P1,16/12/11,Benfica,Rio Ave,5,1,H,3,1,H,1.17,6.5,19,1.18,6,15,1.17,6,15,1.15,5.7,14,1.14,6,13,1.166,6.5
P1,17/12/11,Guimaraes,Gil Vicente,1,1,D,1,1,D,1.73,3.6,4.75,1.75,3.4,4.75,1.73,3.3,4.75,1.8,3,4.4,1.8,3.25,3.75,1.75,3.4
P1,17/12/11,Porto,Maritimo,2,0,H,0,0,D,1.22,6,13,1.22,5.5,12.5,1.22,5.5,11,1.17,5.4,13,1.2,5,11,1.222,5.75
P1,18/12/11,Academica,Sp Lisbon,1,1,D,1,0,H,5.5,3.5,1.67,5.25,3.5,1.67,5,3.5,1.65,4.9,3.3,1.65,5,3.25,1.62,5,3.5
P1,18/12/11,Feirense,Leiria,2,1,H,1,0,H,2.3,3.1,3.25,2.2,3.1,3.3,2.25,3,3.2,2.2,2.8,3.3,2.2,3,3,2.3,3.1
P1,18/12/11,Nacional,Setubal,1,1,D,0,1,A,1.83,3.4,4.5,1.83,3.2,4.5,1.8,3.2,4.5,1.85,3,4.2,1.83,3,4,1.833,3.3
P1,18/12/11,Pacos Ferreira,Beira Mar,0,3,A,0,2,A,2.3,3.1,3.25,2.35,3,3.1,2.25,3,3.2,2.3,2.9,3,2.25,2.88,3,2.3,3.05
P1,19/12/11,Olhanense,Sp Braga,3,4,A,2,0,H,5,3.5,1.73,4.75,3.35,1.75,4.2,3.2,1.85,4,3,1.9,4,3.1,1.8,4.5,3.4
P1,06/01/12,Setubal,Academica,1,1,D,0,0,D,3.25,3,2.38,3.1,3,2.35,3,3.1,2.3,3,2.8,2.4,2.62,2.9,2.5,3,3.1
P1,07/01/12,Sp Lisbon,Porto,0,0,D,0,0,D,3,3.25,2.38,3.1,3.2,2.4,3,3.1,2.3,3,3,2.3,2.7,3,2.37,2.95,3.2
P1,08/01/12,Gil Vicente,Nacional,0,3,A,0,2,A,2.2,3.2,3.4,2.2,3.1,3.3,2.25,3.1,3.1,2.2,3,3.1,2.1,3,3.2,2.2,3.2
P1,08/01/12,Guimaraes,Feirense,1,0,H,0,0,D,1.67,3.5,5.5,1.7,3.4,5,1.7,3.4,5,1.7,3.2,4.7,1.66,3.25,4.5,1.7,3.4
P1,08/01/12,Leiria,Benfica,0,4,A,0,1,A,10,4.5,1.3,10.5,5.25,1.26,9,4.5,1.33,8.5,4.4,1.3,9,4.2,1.28,10.5,5
P1,08/01/12,Maritimo,Olhanense,2,1,H,2,1,H,1.57,3.75,6,1.65,3.5,5.25,1.6,3.5,5.5,1.6,3.4,5.2,1.61,3.25,5,1.615,3.6
P1,08/01/12,Rio Ave,Pacos Ferreira,1,0,H,1,0,H,1.95,3.3,4,1.8,3.25,4.6,1.9,3.2,4,1.9,3.2,3.7,1.9,3,3.75,1.95,3.25
P1,09/01/12,Beira Mar,Sp Braga,1,2,A,1,1,D,4.75,3.3,1.8,4.5,3.2,1.83,4.25,3.25,1.85,3.9,3.2,1.85,4.5,3.25,1.66,4.333,3.3
P1,13/01/12,Pacos Ferreira,Maritimo,1,1,D,0,0,D,3,3.2,2.38,3,3.1,2.35,3,3.2,2.25,2.9,3,2.3,2.88,3.1,2.2,3.2,3.15
P1,14/01/12,Benfica,Setubal,4,1,H,3,1,H,1.14,7.5,17,1.11,7.75,20,1.13,7,17,1.13,6,16,1.1,7,15,1.125,7.5
P1,14/01/12,Feirense,Gil Vicente,0,0,D,0,0,D,2.25,3.2,3.25,2.25,3,3.3,2.25,3.1,3.1,2.1,3,3.3,2.1,3,3.2,2.25,3.1
P1,14/01/12,Porto,Rio Ave,2,0,H,1,0,H,1.14,7.5,17,1.14,6.75,18.5,1.13,7,17,1.15,5.7,14,1.12,6.5,13,1.133,7.5
P1,15/01/12,Academica,Guimaraes,0,2,A,0,1,A,2.2,3.25,3.25,2.4,3,3,2.25,3.1,3,2.3,3.1,2.8,2.2,3,3,2.3,3.15
P1,15/01/12,Nacional,Leiria,2,2,D,0,1,A,1.91,3.25,4.2,1.91,3.2,4.1,1.9,3.2,4,1.85,3,4.2,1.8,3.25,3.75,1.909,3.2
P1,15/01/12,Olhanense,Beira Mar,2,1,H,0,0,D,2.3,3.2,3.1,2.5,2.95,2.95,2.5,3.1,2.75,2.3,2.9,3,2.25,3.2,2.75,2.45,3.1
P1,15/01/12,Sp Braga,Sp Lisbon,2,1,H,0,0,D,2.4,3.2,3,2.55,3.2,2.9,2.5,3.1,2.75,2.3,3,2.9,2.38,3,2.7,2.5,3.15
P1,20/01/12,Academica,Leiria,0,0,D,0,0,D,1.91,3.3,4.2,1.95,3.2,3.9,1.9,3.2,4,1.85,3.1,4,1.91,3.2,3.5,1.909,3.2
P1,21/01/12,Beira Mar,Maritimo,1,2,A,0,1,A,2.8,3.1,2.63,2.7,3,2.65,2.7,3,2.6,2.6,3,2.6,2.62,2.88,2.5,2.85,3.1
P1,22/01/12,Benfica,Gil Vicente,3,1,H,1,1,D,1.14,7.5,17,1.12,7.25,20,1.15,6,19,1.15,5.7,14,1.1,6.5,15,1.142,7.5
P1,22/01/12,Nacional,Feirense,2,0,H,1,0,H,1.91,3.3,4.2,1.91,3.25,4,1.9,3.2,4,1.85,3,4.2,1.91,3.25,3.4,1.909,3.2
P1,22/01/12,Pacos Ferreira,Setubal,2,1,H,0,0,D,2,3.2,4,2,3.1,3.9,2,3.2,3.6,2,3,3.6,2,3,3.4,1.95,3.1
P1,22/01/12,Porto,Guimaraes,3,1,H,1,0,H,1.3,5.5,9,1.22,5.5,13,1.3,4.5,10,1.2,5,12,1.2,5.5,9,1.285,5
P1,22/01/12,Sp Braga,Rio Ave,2,1,H,2,0,H,1.36,4.33,10,1.38,4.33,8,1.36,4.2,8.5,1.3,4.4,8.5,1.3,4.33,8,1.363,4.333
P1,23/01/12,Olhanense,Sp Lisbon,0,0,D,0,0,D,5.5,3.6,1.67,5.5,3.6,1.62,5,3.5,1.65,4.5,3.3,1.7,4.5,3.25,1.67,5.5,3.5
P1,27/01/12,Guimaraes,Nacional,1,0,H,0,0,D,1.91,3.4,4,1.83,3.25,4.4,1.89,3.25,4,1.9,3.1,3.8,2,3,3.4,1.909,3.2
P1,28/01/12,Feirense,Benfica,1,2,A,0,0,D,12,5.5,1.25,9.5,4.75,1.31,10,4.5,1.3,8.5,4.4,1.3,10,4.5,1.25,12,4.5
P1,28/01/12,Rio Ave,Academica,0,0,D,0,0,D,2.1,3.3,3.5,2.1,3.1,3.6,2.1,3.2,3.4,2.2,3,3.1,2.2,3,3,2.15,3.1
P1,29/01/12,Gil Vicente,Porto,3,1,H,2,0,H,11,5,1.29,9.5,4.5,1.33,8.5,4.33,1.35,8,4,1.35,8,4.33,1.3,10,4.333
P1,29/01/12,Leiria,Pacos Ferreira,2,4,A,2,2,D,2.15,3.3,3.4,2.1,3.1,3.5,2.2,3.1,3.25,2.2,3,3.1,2.1,3,3.2,2.2,3.1
P1,29/01/12,Setubal,Olhanense,2,3,A,2,2,D,2.5,3.3,2.75,2.5,3,2.9,2.5,3.1,2.75,2.5,2.9,2.8,2.3,3,2.8,2.5,3
P1,29/01/12,Sp Lisbon,Beira Mar,2,0,H,2,0,H,1.36,4.33,10,1.35,4.33,9.25,1.35,4.33,8.5,1.35,4,8,1.3,4.2,9,1.35,4.333
P1,30/01/12,Maritimo,Sp Braga,1,2,A,1,0,H,3.2,3.4,2.2,3.2,3.2,2.2,3,3.2,2.25,2.9,3,2.3,3,3,2.2,3.1,3.15
P1,10/02/12,Sp Braga,Setubal,3,0,H,1,0,H,1.2,6,15,1.22,5.25,14.5,1.22,5.25,13,1.25,4.6,10.5,1.2,5.5,10,1.222,5.75
P1,11/02/12,Benfica,Nacional,4,1,H,3,1,H,1.14,7.5,17,1.18,6.25,14,1.15,6.5,15,1.17,5.4,13,1.12,6.5,13,1.15,7.5
P1,11/02/12,Maritimo,Sp Lisbon,2,0,H,1,0,H,3.6,3.25,2.1,3.75,3.2,2,3.6,3.2,2,3.3,3,2.1,3.2,3,2.1,3.8,3.1
P1,12/02/12,Beira Mar,Guimaraes,0,1,A,0,1,A,2.9,3.1,2.5,3,3,2.4,3,3,2.35,3,2.8,2.4,2.75,2.88,2.4,2.9,3.05
P1,12/02/12,Olhanense,Rio Ave,0,2,A,0,2,A,2.3,3.2,3.2,2.15,3.1,3.4,2.2,3.1,3.25,2.3,2.9,3,2.1,3,3.2,2.35,3
P1,12/02/12,Pacos Ferreira,Feirense,3,1,H,2,1,H,2.1,3.2,3.6,2.1,3.1,3.6,2.05,3.2,3.5,2,3,3.6,2,3,3.4,2.05,3.15
P1,12/02/12,Porto,Leiria,4,0,H,0,0,D,1.11,9,19,1.15,6.5,17,1.15,6.5,15,1.17,5.4,13,1.12,6.5,13,1.125,7.5
P1,13/02/12,Academica,Gil Vicente,0,2,A,0,1,A,2.1,3.2,3.6,2.1,3,3.7,2.05,3.1,3.6,2.2,2.8,3.3,2,3,3.4,2.15,3.05
P1,17/02/12,Rio Ave,Maritimo,1,3,A,1,2,A,2.6,3.2,2.7,2.65,3,2.7,2.7,3,2.6,2.65,2.8,2.65,2.8,3,2.3,2.7,3
P1,18/02/12,Gil Vicente,Sp Braga,0,3,A,0,1,A,4.33,3.4,1.83,4.33,3.25,1.85,4.25,3.25,1.85,3.8,3.1,1.9,4.33,3.2,1.73,4,3.25
P1,19/02/12,Feirense,Olhanense,1,1,D,1,0,H,2.38,3.1,3.1,2.35,3,3.1,2.4,3,3,2.2,2.8,3.3,2.38,3,2.7,2.4,3
P1,19/02/12,Leiria,Beira Mar,0,0,D,0,0,D,2.3,3.2,3.1,2.2,3.1,3.3,2.3,3.1,3,2.1,2.9,3.4,2.25,3,2.88,2.5,3.1
P1,19/02/12,Nacional,Academica,4,1,H,2,0,H,2,3.25,3.8,1.95,3.2,3.9,2,3.2,3.6,1.9,3,4,2,3,3.4,2,3.25
P1,19/02/12,Setubal,Porto,1,3,A,0,2,A,13,4.75,1.29,9.5,4.75,1.31,10,4.5,1.3,8.5,4.4,1.3,10,4.5,1.25,12,4.75
P1,19/02/12,Sp Lisbon,Pacos Ferreira,1,0,H,1,0,H,1.44,4.2,7.5,1.42,4.1,7.5,1.4,4,8,1.4,3.7,7.5,1.36,3.75,8,1.4,4.333
P1,20/02/12,Guimaraes,Benfica,1,0,H,1,0,H,6,3.75,1.55,6,3.75,1.55,6,3.6,1.55,6.3,3.5,1.5,6,3.4,1.5,6,3.7
P1,24/02/12,Maritimo,Leiria,1,0,H,0,0,D,1.5,4,7,1.5,3.8,6.5,1.55,3.6,6,1.6,3.4,5.2,1.53,3.4,5.5,1.55,3.75
P1,25/02/12,Academica,Benfica,0,0,D,0,0,D,9,4.5,1.36,7.25,4.2,1.42,8,4,1.4,7.5,3.7,1.4,7,4,1.36,8,4.333
P1,26/02/12,Beira Mar,Setubal,2,3,A,0,2,A,1.83,3.4,4.5,1.95,3.2,3.9,1.9,3.25,4,1.9,3.1,3.8,1.91,3.25,3.4,1.9,3.25
P1,26/02/12,Olhanense,Gil Vicente,0,0,D,0,0,D,2.3,3.1,3.3,2.35,3,3.1,2.3,3,3.1,2.3,2.8,3.1,2.2,3,3,2.3,3.1
P1,26/02/12,Pacos Ferreira,Nacional,0,2,A,0,0,D,2.3,3.1,3.3,2.25,3.1,3.2,2.25,3.1,3.1,2,3.1,3.4,2.1,3,3.2,2.25,3.1
P1,26/02/12,Porto,Feirense,2,0,H,0,0,D,1.13,8.5,17,1.12,7.25,20,1.1,7.5,21,1.12,6,16,1.1,7,15,1.125,8
P1,26/02/12,Sp Lisbon,Rio Ave,1,0,H,1,0,H,1.44,4.2,7.5,1.45,3.9,7.5,1.45,4,7,1.4,3.7,7.5,1.44,3.4,7,1.45,4
P1,27/02/12,Sp Braga,Guimaraes,4,0,H,2,0,H,1.62,3.75,5.5,1.7,3.4,5,1.65,3.6,5,1.6,3.4,5.2,1.53,3.4,5.5,1.615,3.6
P1,02/03/12,Benfica,Porto,2,3,A,1,1,D,2.5,3.2,2.88,2.45,3.3,2.95,2.4,3.2,2.75,2.3,3,3,2.4,3,2.7,2.45,3.25
P1,03/03/12,Nacional,Sp Braga,1,3,A,1,1,D,4,3.2,2,4.1,3.2,1.91,3.75,3.1,2,3.5,3.1,2,3.5,3.2,1.91,4,3.25
P1,03/03/12,Setubal,Sp Lisbon,1,0,H,1,0,H,6,3.6,1.62,5.75,3.6,1.6,5.5,3.5,1.6,4.9,3.3,1.65,5,3.25,1.62,6,3.6
P1,04/03/12,Feirense,Academica,1,1,D,0,0,D,2.4,3.1,3.1,2.5,3,2.9,2.4,3,2.9,2.4,2.9,2.9,2.2,3,3,2.4,3.05
P1,04/03/12,Gil Vicente,Pacos Ferreira,1,2,A,1,1,D,2.2,3.2,3.4,2.1,3.1,3.6,2.2,3.1,3.2,2.1,3,3.3,2.1,3,3.2,2.15,3.2
P1,04/03/12,Guimaraes,Maritimo,1,0,H,0,0,D,2.3,3.1,3.25,2.2,3.1,3.3,2.3,3.1,3,2.2,3,3.1,2.38,3.1,2.62,2.25,3.1
P1,04/03/12,Rio Ave,Beira Mar,4,0,H,1,0,H,2.1,3.1,3.75,2.1,3,3.7,2,3.2,3.6,2.2,2.8,3.3,2.1,3,3.2,2.1,3.1
P1,05/03/12,Leiria,Olhanense,1,3,A,0,1,A,2.5,3,3,2.3,3.1,3.1,2.35,3,3,2.3,3,2.9,2.5,2.9,2.62,2.4,3.05
P1,09/03/12,Maritimo,Feirense,2,1,H,1,1,D,1.53,3.75,7,1.48,3.8,7,1.48,3.6,7.5,1.47,3.5,7,1.5,3.25,6.5,1.5,3.7
P1,10/03/12,Porto,Academica,1,1,D,0,1,A,1.14,8,15,1.14,6.75,18.5,1.15,6.5,16,1.12,6,16,1.1,7.5,17,1.125,8
P1,10/03/12,Sp Braga,Leiria,2,1,H,1,0,H,1.22,6,13,1.23,5.5,11.5,1.22,5.25,12,1.25,4.6,10.5,1.17,5.5,13,1.222,5.5
P1,11/03/12,Beira Mar,Gil Vicente,1,0,H,0,0,D,2.5,3.1,2.9,2.55,3,2.8,2.45,3,2.9,2.4,2.9,2.9,2.38,3,2.7,2.4,3
P1,11/03/12,Olhanense,Nacional,4,4,D,3,2,H,2.5,3,3,2.5,3,2.9,2.45,3,2.9,2.4,2.9,2.9,2.3,2.9,2.88,2.45,3
P1,11/03/12,Pacos Ferreira,Benfica,1,2,A,1,0,H,8,4,1.44,6.5,4,1.48,7.5,3.75,1.45,7.5,3.7,1.4,7,4,1.36,7.5,4
P1,11/03/12,Rio Ave,Setubal,3,0,H,2,0,H,2,3.2,4,2,3.2,3.75,2,3.2,3.6,1.9,3.1,3.8,2,3,3.4,2.1,3.05
P1,11/03/12,Sp Lisbon,Guimaraes,5,0,H,1,0,H,1.73,3.5,5,1.7,3.4,5,1.7,3.4,5,1.7,3.2,4.7,1.67,3.25,4.5,1.75,3.6
P1,16/03/12,Benfica,Beira Mar,3,1,H,2,0,H,1.14,8,17,1.14,7,16.5,1.14,6.75,16,1.12,6,16,1.12,5.5,17,1.125,8
P1,16/03/12,Nacional,Porto,0,2,A,0,1,A,7.5,4.2,1.44,6.75,4.1,1.45,7,4,1.44,7.5,3.7,1.4,6,3.75,1.44,7,4.2
P1,17/03/12,Feirense,Sp Braga,1,4,A,0,1,A,6,3.75,1.57,6,3.75,1.55,6.25,3.6,1.55,7.5,3.7,1.4,6,3.4,1.5,6.5,3.75
P1,17/03/12,Leiria,Rio Ave,1,0,H,0,0,D,3.1,3.1,2.4,3,2.95,2.45,2.8,3.1,2.45,2.55,3.1,2.55,2.88,3,2.25,2.85,3.1
P1,18/03/12,Academica,Pacos Ferreira,0,1,A,0,1,A,2.3,3.1,3.25,2.3,3,3.2,2.3,3,3.1,2.2,3,3.1,2.1,3,3.2,2.3,3.05
P1,18/03/12,Guimaraes,Olhanense,2,2,D,2,0,H,1.8,3.4,4.75,1.8,3.2,4.75,1.77,3.3,4.5,1.75,3.2,4.3,1.73,3.2,4.33,1.75,3.5
P1,18/03/12,Setubal,Maritimo,1,1,D,0,1,A,3.3,3.25,2.2,3.3,3.1,2.2,3.1,3.2,2.2,2.8,3.1,2.3,3.4,3,2,3.2,3.25
P1,19/03/12,Gil Vicente,Sp Lisbon,2,0,H,1,0,H,4.33,3.4,1.85,4.4,3.25,1.83,4.1,3.25,1.85,3.8,3.2,1.85,3.75,3.25,1.8,4.5,3.4
P1,23/03/12,Olhanense,Benfica,0,0,D,0,0,D,8.5,4.33,1.4,7.75,4.25,1.4,7,4,1.45,7.5,3.7,1.4,7,3.75,1.4,8.5,4.2
P1,24/03/12,Sp Lisbon,Feirense,1,0,H,1,0,H,1.33,5,9,1.31,4.6,10,1.3,4.5,10,1.3,4.6,8,1.3,4.2,9,1.3,5
P1,25/03/12,Beira Mar,Nacional,0,3,A,0,1,A,2.88,3,2.63,2.85,3,2.5,2.8,3,2.5,2.55,3.1,2.55,2.6,2.9,2.5,2.85,3.05
P1,25/03/12,Pacos Ferreira,Porto,1,1,D,0,0,D,10,4.33,1.36,7.25,4.4,1.4,8.5,4.33,1.35,8,4.6,1.3,8,4,1.33,9,4.5
P1,25/03/12,Rio Ave,Guimaraes,0,1,A,0,0,D,2.38,3.1,3.1,2.5,3,2.9,2.4,3.1,2.85,2.55,3.1,2.55,2.5,2.9,2.6,2.5,3.05
P1,25/03/12,Setubal,Leiria,1,0,H,1,0,H,2.1,3.2,3.6,2.15,3.1,3.4,2.15,3.1,3.3,2,3.1,3.4,2,3,3.4,2.15,3.1
P1,26/03/12,Maritimo,Gil Vicente,3,2,H,1,2,A,1.73,3.5,5,1.65,3.4,5.5,1.65,3.4,5.25,1.55,3.5,5.6,1.62,3.25,5,1.65,3.5
P1,26/03/12,Sp Braga,Academica,2,1,H,2,0,H,1.33,4.75,10,1.3,4.75,10,1.3,4.5,10,1.2,5,12,1.25,4.5,10,1.3,4.75
P1,30/03/12,Academica,Maritimo,0,1,A,0,0,D,3.1,3.1,2.4,3.1,3,2.35,2.75,3.1,2.5,2.9,3,2.3,2.88,3,2.25,2.75,3.15
P1,31/03/12,Benfica,Sp Braga,2,1,H,0,0,D,1.73,3.6,4.75,1.83,3.6,4.4,1.75,3.5,4.25,1.8,3.2,4,1.8,3.25,3.75,1.727,3.5
P1,31/03/12,Porto,Olhanense,2,0,H,1,0,H,1.17,7,15,1.18,6,15,1.15,6.5,15,1.15,5.7,14,1.12,6,15,1.15,7
P1,01/04/12,Feirense,Beira Mar,1,3,A,0,2,A,2.4,3.1,3.1,2.35,3,3.1,2.3,3.1,3,2.3,2.9,3,2.25,3,2.88,2.4,3.1
P1,01/04/12,Gil Vicente,Setubal,0,1,A,0,0,D,1.91,3.25,4.33,1.88,3.2,4.25,1.9,3.2,4,1.9,3.1,3.9,1.91,3.2,3.5,1.95,3.1
P1,01/04/12,Guimaraes,Pacos Ferreira,3,1,H,1,0,H,2.05,3.25,3.75,1.88,3.2,4.25,1.83,3.1,4.5,1.8,3.1,4.2,1.8,3.25,3.75,1.9,3.25
P1,01/04/12,Leiria,Sp Lisbon,0,1,A,0,0,D,5.5,3.3,1.73,5,3.3,1.72,5,3.3,1.7,4,3.2,1.8,4.33,3.2,1.73,4.8,3.4
P1,01/04/12,Nacional,Rio Ave,2,1,H,1,0,H,2.1,3.2,3.6,2.15,3.1,3.4,2.1,3.1,3.5,1.9,3.1,3.8,2,3,3.4,2.1,3.2
P1,06/04/12,Beira Mar,Academica,2,1,H,0,1,A,2.38,3.1,3.1,2.35,3,3.1,2.35,3.1,2.9,2.3,2.9,3,2.2,3,3,2.4,3.1
P1,06/04/12,Leiria,Gil Vicente,0,0,D,0,0,D,2.3,3.1,3.2,2.3,3,3.2,2.3,3.1,3,2.2,3,3.1,2.38,2.88,2.8,2.45,3
P1,06/04/12,Setubal,Guimaraes,1,0,H,0,0,D,3,3.2,2.4,2.85,3,2.5,2.8,3.1,2.45,2.8,3,2.4,2.8,2.88,2.38,3,3.1
P1,07/04/12,Maritimo,Nacional,2,4,A,1,2,A,2.05,3.25,3.75,1.95,3.2,3.9,1.9,3.25,4,1.9,3,4,1.83,3,4,2.05,3.25
P1,07/04/12,Olhanense,Pacos Ferreira,1,2,A,1,1,D,2.4,3.1,3.1,2.35,3,3.1,2.35,3.1,2.9,2.2,2.9,3.2,2.25,3,2.88,2.35,3.1
P1,07/04/12,Rio Ave,Feirense,2,2,D,1,1,D,1.73,3.5,5,1.7,3.4,5,1.7,3.4,5,1.75,3.2,4.3,1.67,3.25,4.5,1.7,3.5
P1,07/04/12,Sp Braga,Porto,0,1,A,0,0,D,3.2,3.25,2.25,3.1,3.3,2.35,3,3.2,2.25,2.9,3,2.3,3,3,2.2,3.1,3.25
P1,09/04/12,Sp Lisbon,Benfica,1,0,H,1,0,H,3.5,3.3,2.1,3.2,3.2,2.2,3.3,3.2,2.1,3,3.1,2.2,3.2,3,2.1,3.3,3.2
P1,20/04/12,Pacos Ferreira,Sp Braga,1,1,D,1,0,H,6.5,3.6,1.57,5.75,3.5,1.62,5.5,3.5,1.6,4.7,3.4,1.65,5.5,3.25,1.57,5.25,3.8
P1,21/04/12,Benfica,Maritimo,4,1,H,2,0,H,1.3,5,11,1.28,5,10,1.3,4.75,9,1.25,4.6,10.5,1.25,4.5,10,1.285,5
P1,21/04/12,Guimaraes,Leiria,3,2,H,0,0,D,1.67,3.5,5.5,1.62,3.6,5.5,1.7,3.4,4.75,1.6,3.4,5.2,1.57,3.5,5,1.7,3.5
P1,21/04/12,Porto,Beira Mar,3,0,H,1,0,H,1.14,7.5,17,1.12,7.25,20,1.13,7,15,1.12,6,16,1.1,7,15,1.111,8
P1,22/04/12,Feirense,Setubal,1,0,H,1,0,H,2.38,3.1,3.1,2.45,3,2.95,2.35,3,3,2.3,3.1,2.8,2.2,3,3,2.35,3.1
P1,22/04/12,Gil Vicente,Rio Ave,0,0,D,0,0,D,2.25,3.2,3.25,2.15,3.1,3.4,2.3,3.1,3,2.2,2.7,3.4,2.1,3,3.2,2.25,3.1
P1,22/04/12,Nacional,Sp Lisbon,2,3,A,1,2,A,3.25,3.2,2.25,3.5,3.2,2.2,3.4,3.1,2.1,3,3.1,2.2,3.4,3,2,3.1,3.15
P1,23/04/12,Academica,Olhanense,0,1,A,0,0,D,2.1,3.2,3.6,2.15,3.1,3.4,2.1,3.1,3.4,1.9,3.1,3.8,2,3,3.4,2.1,3.1
P1,27/04/12,Sp Braga,Olhanense,1,2,A,1,0,H,1.29,5,12,1.26,5,11.5,1.28,4.75,11,1.25,4.8,9.5,1.29,4,10,1.3,4.75
P1,28/04/12,Gil Vicente,Guimaraes,3,1,H,1,1,D,2.6,3.1,2.8,2.75,3.1,2.55,2.6,3.1,2.6,2.7,3,2.5,2.5,3.1,2.5,2.7,3.1
P1,28/04/12,Maritimo,Porto,0,2,A,0,1,A,7,4,1.5,6,3.8,1.53,7,3.75,1.48,7.5,3.7,1.4,6.5,4,1.4,7,3.8
P1,29/04/12,Beira Mar,Pacos Ferreira,2,0,H,1,0,H,2.3,3.2,3.1,2.4,3.1,2.95,2.35,3.1,2.9,2.1,3.1,3.2,2.38,2.9,2.75,2.4,3.1
P1,29/04/12,Leiria,Feirense,0,4,A,0,1,A,2.38,3.2,3,2.4,3.1,2.95,2.4,3.1,2.9,2.2,3.1,3,2.5,2.9,2.62,2.35,3.1
P1,29/04/12,Rio Ave,Benfica,2,2,D,1,2,A,6.5,3.8,1.53,5.75,3.75,1.56,6,3.6,1.55,7,3.6,1.45,6,3.75,1.44,6.5,3.75
P1,29/04/12,Setubal,Nacional,0,3,A,0,3,A,2.8,3.1,2.6,2.55,3.1,2.75,2.5,3.1,2.75,2.55,3.1,2.55,2.4,3.1,2.6,2.7,3.1
P1,30/04/12,Sp Lisbon,Academica,2,1,H,1,1,D,1.5,3.8,7.5,1.48,4,6.5,1.42,4,7.5,1.4,3.7,7.5,1.36,4,7,1.444,4.2
P1,05/05/12,Academica,Setubal,1,0,H,1,0,H,1.75,3.5,4.75,1.75,3.4,4.6,1.85,3.25,4.25,,,,1.91,3,3.75,1.75,3.5
P1,05/05/12,Benfica,Leiria,1,0,H,1,0,H,,,,,,,,,,1.03,10,22,,,,,
P1,05/05/12,Feirense,Guimaraes,1,3,A,1,1,D,2.4,3.2,3,2.4,3.1,2.95,2.3,3.3,2.85,,,,2.62,2.88,2.5,2.45,3.15
P1,05/05/12,Nacional,Gil Vicente,3,1,H,1,1,D,1.8,3.5,4.5,1.75,3.4,4.6,1.8,3.4,4.25,1.6,3.4,5.2,1.83,3,4,1.8,3.4
P1,05/05/12,Olhanense,Maritimo,0,0,D,0,0,D,2.7,3.2,2.6,2.7,2.95,2.7,2.75,3,2.55,2.7,2.7,2.7,2.62,2.88,2.5,2.875,3
P1,05/05/12,Pacos Ferreira,Rio Ave,2,2,D,1,1,D,2.5,3.2,2.8,2.65,3.1,2.6,2.45,3,2.9,,,,2.2,3,3,2.5,3
P1,05/05/12,Porto,Sp Lisbon,2,0,H,0,0,D,1.67,3.6,5.25,1.72,3.5,4.75,1.6,3.6,5.5,1.7,3.3,4.5,1.53,3.4,5.5,1.65,3.6
P1,05/05/12,Sp Braga,Beira Mar,1,0,H,0,0,D,1.29,5,12,1.28,5,10,1.28,5,9,1.27,4.6,9,1.33,4,8,1.3,4.75
P1,12/05/12,Beira Mar,Olhanense,1,2,A,0,1,A,2.5,3.2,2.88,2.55,3.1,2.75,2.5,3.2,2.65,2.4,3,2.8,2.38,2.8,2.88,2.5,3.1
P1,12/05/12,Gil Vicente,Feirense,3,1,H,1,0,H,3,3.25,2.38,3.1,3.2,2.25,3,3.2,2.25,,,,2.8,3.2,2.2,3.1,3.4
P1,12/05/12,Guimaraes,Academica,1,2,A,0,1,A,2.88,3.1,2.5,3,2.85,2.5,2.75,3.1,2.5,2.7,2.7,2.7,2.62,2.75,2.62,2.65,3.15
P1,12/05/12,Leiria,Nacional,2,3,A,0,2,A,,,,,,,,,,,,,,,,,
P1,12/05/12,Maritimo,Pacos Ferreira,1,1,D,0,0,D,1.83,3.4,4.5,1.72,3.5,4.75,1.8,3.3,4.33,1.75,3.2,4.3,1.73,3.2,4.33,1.8,3.4
P1,12/05/12,Rio Ave,Porto,2,5,A,1,2,A,7.5,4.2,1.44,7.25,4.2,1.42,7,4,1.44,7,3.6,1.45,7,3.4,1.44,7,4.2
P1,12/05/12,Setubal,Benfica,1,3,A,1,1,D,8.5,4.33,1.4,7.25,4.2,1.42,8,4,1.4,7,3.6,1.45,8,4,1.33,8,4.333
P1,12/05/12,Sp Lisbon,Sp Braga,3,2,H,1,0,H,2.2,3.25,3.25,2.1,3.1,3.6,2.05,3.2,3.5,2,3.1,3.4,2,3,3.4,2.2,3.2
